[
    {
       "distillery":"Glenfarclas Distillery",
       "smws_code":"1"
    },
    {
       "distillery":"Glenlivet Distillery",
       "smws_code":"2"
    },
    {
       "distillery":"Bowmore Distillery",
       "smws_code":"3"
    },
    {
       "distillery":"Highland Park Distillery",
       "smws_code":"4"
    },
    {
       "distillery":"Auchentoshan Distillery",
       "smws_code":"5"
    },
    {
       "distillery":"Macduff Distillery (Glen Deveron)",
       "smws_code":"6"
    },
    {
       "distillery":"Longmorn Distillery",
       "smws_code":"7"
    },
    {
       "distillery":"Tamdhu Distillery",
       "smws_code":"8"
    },
    {
       "distillery":"Glen Grant Distillery",
       "smws_code":"9"
    },
    {
       "distillery":"Bunnahabhain Distillery",
       "smws_code":"10"
    },
    {
       "distillery":"Tomatin Distillery",
       "smws_code":"11"
    },
    {
       "distillery":"Benriach Distillery",
       "smws_code":"12"
    },
    {
       "distillery":"Dalmore Distillery",
       "smws_code":"13"
    },
    {
       "distillery":"Talisker Distillery",
       "smws_code":"14"
    },
    {
       "distillery":"Glenfiddich Distillery",
       "smws_code":"15"
    },
    {
       "distillery":"Glenturret Distillery",
       "smws_code":"16"
    },
    {
       "distillery":"Scapa Distillery",
       "smws_code":"17"
    },
    {
       "distillery":"Inchgower Distillery",
       "smws_code":"18"
    },
    {
       "distillery":"Glen Garioch Distillery",
       "smws_code":"19"
    },
    {
       "distillery":"Inverleven Distillery",
       "smws_code":"20"
    },
    {
       "distillery":"Glenglassaugh Distillery",
       "smws_code":"21"
    },
    {
       "distillery":"Glenkinchie Distillery",
       "smws_code":"22"
    },
    {
       "distillery":"Bruichladdich Distillery",
       "smws_code":"23"
    },
    {
       "distillery":"Macallan Distillery",
       "smws_code":"24"
    },
    {
       "distillery":"Rosebank Distillery",
       "smws_code":"25"
    },
    {
       "distillery":"Clynelish Distillery",
       "smws_code":"26"
    },
    {
       "distillery":"Springbank Distillery",
       "smws_code":"27"
    },
    {
       "distillery":"Tullibardine Distillery",
       "smws_code":"28"
    },
    {
       "distillery":"Laphroaig Distillery",
       "smws_code":"29"
    },
    {
       "distillery":"Glenrothes Distillery",
       "smws_code":"30"
    },
    {
       "distillery":"Isle of Jura Distillery",
       "smws_code":"31"
    },
    {
       "distillery":"Edradour Distillery",
       "smws_code":"32"
    },
    {
       "distillery":"Ardbeg Distillery",
       "smws_code":"33"
    },
    {
       "distillery":"Tamnavulin Distillery",
       "smws_code":"34"
    },
    {
       "distillery":"Glen Moray Distillery",
       "smws_code":"35"
    },
    {
       "distillery":"Benrinnes Distillery",
       "smws_code":"36"
    },
    {
       "distillery":"Cragganmore Distillery",
       "smws_code":"37"
    },
    {
       "distillery":"Caperdonich Distillery",
       "smws_code":"38"
    },
    {
       "distillery":"Linkwood Distillery",
       "smws_code":"39"
    },
    {
       "distillery":"Balvenie Distillery",
       "smws_code":"40"
    },
    {
       "distillery":"Dailuaine Distillery",
       "smws_code":"41"
    },
    {
       "distillery":"Tobermory Distillery (Ledaig)",
       "smws_code":"42"
    },
    {
       "distillery":"Port Ellen Distillery",
       "smws_code":"43"
    },
    {
       "distillery":"Craigellachie Distillery",
       "smws_code":"44"
    },
    {
       "distillery":"Dallas Dhu Distillery",
       "smws_code":"45"
    },
    {
       "distillery":"Glenlossie Distillery",
       "smws_code":"46"
    },
    {
       "distillery":"Benromach Distillery",
       "smws_code":"47"
    },
    {
       "distillery":"Balmenach Distillery",
       "smws_code":"48"
    },
    {
       "distillery":"St. Magdalene Distillery",
       "smws_code":"49"
    },
    {
       "distillery":"Bladnoch Distillery",
       "smws_code":"50"
    },
    {
       "distillery":"Bushmills Distillery",
       "smws_code":"51"
    },
    {
       "distillery":"Old Pulteney Distillery",
       "smws_code":"52"
    },
    {
       "distillery":"Caol Ila Distillery",
       "smws_code":"53"
    },
    {
       "distillery":"Aberlour Distillery",
       "smws_code":"54"
    },
    {
       "distillery":"Royal Brackla Distillery",
       "smws_code":"55"
    },
    {
       "distillery":"Coleburn Distillery",
       "smws_code":"56"
    },
    {
       "distillery":"Glen Mhor Distillery",
       "smws_code":"57"
    },
    {
       "distillery":"Strathisla Distillery",
       "smws_code":"58"
    },
    {
       "distillery":"Teaninich Distillery",
       "smws_code":"59"
    },
    {
       "distillery":"Aberfeldy Distillery",
       "smws_code":"60"
    },
    {
       "distillery":"Brora Distillery",
       "smws_code":"61"
    },
    {
       "distillery":"Glenlochy Distillery",
       "smws_code":"62"
    },
    {
       "distillery":"Glentauchers Distillery",
       "smws_code":"63"
    },
    {
       "distillery":"Mannochmore Distillery",
       "smws_code":"64"
    },
    {
       "distillery":"Imperial Distillery",
       "smws_code":"65"
    },
    {
       "distillery":"Ardmore Distillery",
       "smws_code":"66"
    },
    {
       "distillery":"Banff Distillery",
       "smws_code":"67"
    },
    {
       "distillery":"Blair Athol Distillery",
       "smws_code":"68"
    },
    {
       "distillery":"Glen Albyn Distillery",
       "smws_code":"69"
    },
    {
       "distillery":"Balblair Distillery",
       "smws_code":"70"
    },
    {
       "distillery":"Glenburgie Distillery",
       "smws_code":"71"
    },
    {
       "distillery":"Miltonduff Distillery",
       "smws_code":"72"
    },
    {
       "distillery":"Aultmore Distillery",
       "smws_code":"73"
    },
    {
       "distillery":"North Port Distillery",
       "smws_code":"74"
    },
    {
       "distillery":"Glenury Royal Distillery",
       "smws_code":"75"
    },
    {
       "distillery":"Mortlach Distillery",
       "smws_code":"76"
    },
    {
       "distillery":"Glen Ord Distillery",
       "smws_code":"77"
    },
    {
       "distillery":"Ben Nevis Distillery",
       "smws_code":"78"
    },
    {
       "distillery":"Deanston Distillery",
       "smws_code":"79"
    },
    {
       "distillery":"Glen Spey Distillery",
       "smws_code":"80"
    },
    {
       "distillery":"Glen Keith Distillery",
       "smws_code":"81"
    },
    {
       "distillery":"Glencadam Distillery",
       "smws_code":"82"
    },
    {
       "distillery":"Convalmore Distillery",
       "smws_code":"83"
    },
    {
       "distillery":"Glendullan Distillery",
       "smws_code":"84"
    },
    {
       "distillery":"Glen Elgin Distillery",
       "smws_code":"85"
    },
    {
       "distillery":"Glenesk Distillery",
       "smws_code":"86"
    },
    {
       "distillery":"Millburn Distillery",
       "smws_code":"87"
    },
    {
       "distillery":"Speyburn Distillery",
       "smws_code":"88"
    },
    {
       "distillery":"Tomintoul Distillery",
       "smws_code":"89"
    },
    {
       "distillery":"Pittyvaich Distillery",
       "smws_code":"90"
    },
    {
       "distillery":"Dufftown Distillery",
       "smws_code":"91"
    },
    {
       "distillery":"Lochside Distillery",
       "smws_code":"92"
    },
    {
       "distillery":"Glen Scotia Distillery",
       "smws_code":"93"
    },
    {
       "distillery":"Old Fettercairn Distillery",
       "smws_code":"94"
    },
    {
       "distillery":"Auchroisk (Singleton) Distillery",
       "smws_code":"95"
    },
    {
       "distillery":"Glendronach Distillery",
       "smws_code":"96"
    },
    {
       "distillery":"Littlemill Distillery",
       "smws_code":"97"
    },
    {
       "distillery":"Inverleven Distillery (Lomond)",
       "smws_code":"98"
    },
    {
       "distillery":"Glenugie Distillery",
       "smws_code":"99"
    },
    {
       "distillery":"Strathmill Distillery",
       "smws_code":"100"
    },
    {
       "distillery":"Knockando Distillery",
       "smws_code":"101"
    },
    {
       "distillery":"Dalwhinnie Distillery",
       "smws_code":"102"
    },
    {
       "distillery":"Royal Lochnagar Distillery",
       "smws_code":"103"
    },
    {
       "distillery":"Glenburgie Distillery (Glencraig)",
       "smws_code":"104"
    },
    {
       "distillery":"Tormore Distillery",
       "smws_code":"105"
    },
    {
       "distillery":"Cardhu Distillery",
       "smws_code":"106"
    },
    {
       "distillery":"Glenallachie Distillery",
       "smws_code":"107"
    },
    {
       "distillery":"Allt-a-Bhainne Distillery",
       "smws_code":"108"
    },
    {
       "distillery":"Miltonduff (Mosstowie)",
       "smws_code":"109"
    },
    {
       "distillery":"Oban Distillery",
       "smws_code":"110"
    },
    {
       "distillery":"Lagavulin Distillery",
       "smws_code":"111"
    },
    {
       "distillery":"Loch Lomond Distillery (Inchmurrin)",
       "smws_code":"112"
    },
    {
       "distillery":"Braeval Distillery (Braes of Glenlivet)",
       "smws_code":"113"
    },
    {
       "distillery":"Springbank Distillery (Longrow)",
       "smws_code":"114"
    },
    {
       "distillery":"Knockdhu Distillery (An Cnoc)",
       "smws_code":"115"
    },
    {
       "distillery":"Yoichi Distillery",
       "smws_code":"116"
    },
    {
       "distillery":"Cooley Distillery (unpeated)",
       "smws_code":"117"
    },
    {
       "distillery":"Cooley Distillery (peated)",
       "smws_code":"118"
    },
    {
       "distillery":"Yamazaki Distillery",
       "smws_code":"119"
    },
    {
       "distillery":"Hakushu Distillery",
       "smws_code":"120"
    },
    {
       "distillery":"Isle of Arran Distillery",
       "smws_code":"121"
    },
    {
       "distillery":"Loch Lomond Distillery (Croftengea)",
       "smws_code":"122"
    },
    {
       "distillery":"Glengoyne Distillery",
       "smws_code":"123"
    },
    {
       "distillery":"Miyagikyo Distillery",
       "smws_code":"124"
    },
    {
       "distillery":"Glenmorangie Distillery",
       "smws_code":"125"
    },
    {
       "distillery":"Springbank Distillery (Hazelburn)",
       "smws_code":"126"
    },
    {
       "distillery":"Bruichladdich (Port Charlotte)",
       "smws_code":"127"
    },
    {
       "distillery":"Penderyn Distillery",
       "smws_code":"128"
    },
    {
       "distillery":"Kilchoman Distillery",
       "smws_code":"129"
    },
    {
       "distillery":"Chichibu (Japan)",
       "smws_code":"130"
    },
    {
       "distillery":"Hanyu (Japan)",
       "smws_code":"131"
    },
    {
       "distillery":"Karuizawa (Japan)",
       "smws_code":"132"
    },
    {
       "distillery":"Westland Distillery (USA)",
       "smws_code":"133"
    },
    {
       "distillery":"Paul John (India)",
       "smws_code":"134"
    },
    {
       "distillery":"Loch Lomond Distillery (Inchmoan)",
       "smws_code":"135"
    },
    {
       "distillery":"North British Distillery",
       "smws_code":"G1"
    },
    {
       "distillery":"Carsebridge Distillery",
       "smws_code":"G2"
    },
    {
       "distillery":"Caledonian Distillery",
       "smws_code":"G3"
    },
    {
       "distillery":"Cameronbridge Distillery",
       "smws_code":"G4"
    },
    {
       "distillery":"Invergordon Distillery",
       "smws_code":"G5"
    },
    {
       "distillery":"Port Dundas Distillery",
       "smws_code":"G6"
    },
    {
       "distillery":"Girvan Distillery",
       "smws_code":"G7"
    },
    {
       "distillery":"Cambus Distillery",
       "smws_code":"G8"
    },
    {
       "distillery":"Loch Lomond Distillery",
       "smws_code":"G9"
    },
    {
       "distillery":"Strathclyde Distillery",
       "smws_code":"G10"
    },
    {
       "distillery":"Nikka Coffey Grain (Japan)",
       "smws_code":"G11"
    },
    {
       "distillery":"Nikka Coffey Malt (Japan)",
       "smws_code":"G12"
    },
    {
       "distillery":"Chita (Japan)",
       "smws_code":"G13"
    },
    {
       "distillery":"Dumbarton Distillery",
       "smws_code":"G14"
    },
    {
       "distillery":"Heaven Hill",
       "smws_code":"B1"
    },
    {
       "distillery":"Bernheim",
       "smws_code":"B2"
    },
    {
       "distillery":"Rock Town",
       "smws_code":"B3"
    },
    {
       "distillery":"F.E.W Distillery",
       "smws_code":"B4"
    },
    {
       "distillery":"Port Morant (Jamaica)",
       "smws_code":"R1"
    },
    {
       "distillery":"Demerara El Dorado (Guyana)",
       "smws_code":"R2"
    },
    {
       "distillery":"Mount Gay (Barbados)",
       "smws_code":"R3"
    },
    {
       "distillery":"Angostura (Trinidad)",
       "smws_code":"R4"
    },
    {
       "distillery":"Appleton (Jamaica)",
       "smws_code":"R5"
    },
    {
       "distillery":"Camus",
       "smws_code":"R5"
    }
 ]